dplyr
…
However, most often, the pipe takes a dataset (or a modified dataset) and forwards it into the next function as the data argument of the next function.

Datawrangling

First input is always the data frame. After that, there can be various inputs The select function takes column names as inputs. Compared to the base r syntax we do not have to write column names in quotation marks.

dplyr syntax lets us specify the dataframe first, and afterwards we can refer to columns within a dataframe without the need to always reference the dataframe of origin:

select

# base
adsl[c("STUDYID", "USUBJID","ARM", "AGE", "SEX", "RACE")]

# A tibble: 306 × 6
   STUDYID      USUBJID     ARM                    AGE SEX   RACE 
   <chr>        <chr>       <chr>                <dbl> <chr> <chr>
 1 CDISCPILOT01 01-701-1015 Placebo                 63 F     WHITE
 2 CDISCPILOT01 01-701-1023 Placebo                 64 M     WHITE
 3 CDISCPILOT01 01-701-1028 Xanomeline High Dose    71 M     WHITE
 4 CDISCPILOT01 01-701-1033 Xanomeline Low Dose     74 M     WHITE
 5 CDISCPILOT01 01-701-1034 Xanomeline High Dose    77 F     WHITE
 6 CDISCPILOT01 01-701-1047 Placebo                 85 F     WHITE
 7 CDISCPILOT01 01-701-1057 Screen Failure          59 F     WHITE
 8 CDISCPILOT01 01-701-1097 Xanomeline Low Dose     68 M     WHITE
 9 CDISCPILOT01 01-701-1111 Xanomeline Low Dose     81 F     WHITE
10 CDISCPILOT01 01-701-1115 Xanomeline Low Dose     84 M     WHITE
# … with 296 more rows

# dplyr::select
adsl_select <- select(.data = adsl, STUDYID, USUBJID, ARM, AGE, SEX, RACE)

# dplyr::select & pipe
adsl %>% 
  select(STUDYID, USUBJID, ARM, AGE, SEX, RACE)

# A tibble: 306 × 6
   STUDYID      USUBJID     ARM                    AGE SEX   RACE 
   <chr>        <chr>       <chr>                <dbl> <chr> <chr>
 1 CDISCPILOT01 01-701-1015 Placebo                 63 F     WHITE
 2 CDISCPILOT01 01-701-1023 Placebo                 64 M     WHITE
 3 CDISCPILOT01 01-701-1028 Xanomeline High Dose    71 M     WHITE
 4 CDISCPILOT01 01-701-1033 Xanomeline Low Dose     74 M     WHITE
 5 CDISCPILOT01 01-701-1034 Xanomeline High Dose    77 F     WHITE
 6 CDISCPILOT01 01-701-1047 Placebo                 85 F     WHITE
 7 CDISCPILOT01 01-701-1057 Screen Failure          59 F     WHITE
 8 CDISCPILOT01 01-701-1097 Xanomeline Low Dose     68 M     WHITE
 9 CDISCPILOT01 01-701-1111 Xanomeline Low Dose     81 F     WHITE
10 CDISCPILOT01 01-701-1115 Xanomeline Low Dose     84 M     WHITE
# … with 296 more rows

There are also some helper functions to use within the select function of dplyr. starts_with() ends_with() num_range(). They allow us to select multiple columns sharing a naming structure. num_range() let’s us select consecutively numbered columns, e.g.: num_range("example", 1:4) would select the columns named: example1, example2, example3, example4.

We can try out starts_with():

adsl %>% 
  select(USUBJID, 
         starts_with("trt"))

# A tibble: 306 × 10
   USUBJID TRT01P TRT01A TRTSDTM             TRTSTMF TRTEDTM             TRTETMF
   <chr>   <chr>  <chr>  <dttm>              <chr>   <dttm>              <chr>  
 1 01-701… Place… Place… 2014-01-02 00:00:00 H       2014-07-02 23:59:59 H      
 2 01-701… Place… Place… 2012-08-05 00:00:00 H       2012-09-01 23:59:59 H      
 3 01-701… Xanom… Xanom… 2013-07-19 00:00:00 H       2014-01-14 23:59:59 H      
 4 01-701… Xanom… Xanom… 2014-03-18 00:00:00 H       2014-03-31 23:59:59 H      
 5 01-701… Xanom… Xanom… 2014-07-01 00:00:00 H       2014-12-30 23:59:59 H      
 6 01-701… Place… Place… 2013-02-12 00:00:00 H       2013-03-09 23:59:59 H      
 7 01-701… Scree… Scree… NA                  <NA>    NA                  <NA>   
 8 01-701… Xanom… Xanom… 2014-01-01 00:00:00 H       2014-07-09 23:59:59 H      
 9 01-701… Xanom… Xanom… 2012-09-07 00:00:00 H       2012-09-16 23:59:59 H      
10 01-701… Xanom… Xanom… 2012-11-30 00:00:00 H       2013-01-23 23:59:59 H      
# … with 296 more rows, and 3 more variables: TRTSDT <date>, TRTEDT <date>,
#   TRTDURD <dbl>

And ends_with():

# in this df, all variables that contain dates end with "DT". 
# We can select them:
adsl %>% 
  select(USUBJID, 
         ends_with("DT"))

# A tibble: 306 × 9
   USUBJID     TRTSDT     TRTEDT     SCRFDT     EOSDT      FRVDT      RANDDT    
   <chr>       <date>     <date>     <date>     <date>     <date>     <date>    
 1 01-701-1015 2014-01-02 2014-07-02 NA         2014-07-02 NA         2014-01-02
 2 01-701-1023 2012-08-05 2012-09-01 NA         2012-09-02 2013-02-18 2012-08-05
 3 01-701-1028 2013-07-19 2014-01-14 NA         2014-01-14 NA         2013-07-19
 4 01-701-1033 2014-03-18 2014-03-31 NA         2014-04-14 2014-09-15 2014-03-18
 5 01-701-1034 2014-07-01 2014-12-30 NA         2014-12-30 NA         2014-07-01
 6 01-701-1047 2013-02-12 2013-03-09 NA         2013-03-29 2013-07-28 2013-02-12
 7 01-701-1057 NA         NA         2013-12-20 NA         NA         NA        
 8 01-701-1097 2014-01-01 2014-07-09 NA         2014-07-09 NA         2014-01-01
 9 01-701-1111 2012-09-07 2012-09-16 NA         2012-09-17 2013-02-22 2012-09-07
10 01-701-1115 2012-11-30 2013-01-23 NA         2013-01-23 2013-05-20 2012-11-30
# … with 296 more rows, and 2 more variables: DTHDT <date>, LSTALVDT <date>

Change order of variables

We can use the select() function to reorder the variables in the data-frame. This does not affect the order of rows.

adsl %>% 
  select(ARM, USUBJID)

# A tibble: 306 × 2
   ARM                  USUBJID    
   <chr>                <chr>      
 1 Placebo              01-701-1015
 2 Placebo              01-701-1023
 3 Xanomeline High Dose 01-701-1028
 4 Xanomeline Low Dose  01-701-1033
 5 Xanomeline High Dose 01-701-1034
 6 Placebo              01-701-1047
 7 Screen Failure       01-701-1057
 8 Xanomeline Low Dose  01-701-1097
 9 Xanomeline Low Dose  01-701-1111
10 Xanomeline Low Dose  01-701-1115
# … with 296 more rows
…
Within filter, we can chain logical vectors by separating them with a comma (,). Lets have a look at women older than 70:

# base:
adsl_filter <- adsl_select[adsl_select$AGE>=70 & adsl_select$SEX=="F", ]

# select, filter, & pipe:
adsl %>% 
  select(STUDYID, USUBJID, ARM, AGE, SEX, RACE) %>% 
  filter(AGE >= 70,
         SEX == "F")

# A tibble: 141 × 6
   STUDYID      USUBJID     ARM                    AGE SEX   RACE               
   <chr>        <chr>       <chr>                <dbl> <chr> <chr>              
 1 CDISCPILOT01 01-701-1034 Xanomeline High Dose    77 F     WHITE              
 2 CDISCPILOT01 01-701-1047 Placebo                 85 F     WHITE              
 3 CDISCPILOT01 01-701-1111 Xanomeline Low Dose     81 F     WHITE              
 4 CDISCPILOT01 01-701-1133 Xanomeline High Dose    81 F     WHITE              
 5 CDISCPILOT01 01-701-1146 Xanomeline High Dose    75 F     WHITE              
 6 CDISCPILOT01 01-701-1153 Placebo                 79 F     WHITE              
 7 CDISCPILOT01 01-701-1162 Screen Failure          82 F     WHITE              
 8 CDISCPILOT01 01-701-1181 Xanomeline High Dose    79 F     WHITE              
 9 CDISCPILOT01 01-701-1192 Xanomeline Low Dose     80 F     WHITE              
10 CDISCPILOT01 01-701-1203 Placebo                 81 F     BLACK OR AFRICAN A…
# … with 131 more rows
…
arrange

We can sort the dataframe with the arrange() function. It allows the sorting based on multiple variables. Note that the order of arranging variables determines the sorting hierarchy, so in this example we first order by AGE and

 adsl %>% 
  select(STUDYID, USUBJID, ARM, AGE, SEX, RACE) %>% 
  filter(AGE >= 70,
         SEX == "F") %>% 
  arrange(ARM, AGE)

# A tibble: 141 × 6
   STUDYID      USUBJID     ARM       AGE SEX   RACE                     
   <chr>        <chr>       <chr>   <dbl> <chr> <chr>                    
 1 CDISCPILOT01 01-705-1282 Placebo    70 F     BLACK OR AFRICAN AMERICAN
 2 CDISCPILOT01 01-704-1260 Placebo    71 F     WHITE                    
 3 CDISCPILOT01 01-703-1210 Placebo    72 F     WHITE                    
 4 CDISCPILOT01 01-716-1026 Placebo    73 F     WHITE                    
 5 CDISCPILOT01 01-718-1150 Placebo    73 F     WHITE                    
 6 CDISCPILOT01 01-708-1087 Placebo    74 F     WHITE                    
 7 CDISCPILOT01 01-708-1316 Placebo    74 F     WHITE                    
 8 CDISCPILOT01 01-709-1001 Placebo    76 F     WHITE                    
 9 CDISCPILOT01 01-710-1077 Placebo    76 F     WHITE                    
10 CDISCPILOT01 01-715-1397 Placebo    76 F     WHITE                    
# … with 131 more rows

To sort by descending order, we can use the helper function desc() within arrange():

 adsl %>% 
  select(STUDYID, USUBJID, ARM, AGE, SEX, RACE) %>% 
  filter(AGE >= 70,
         SEX == "F") %>% 
  arrange(ARM, desc(AGE))

# A tibble: 141 × 6
   STUDYID      USUBJID     ARM       AGE SEX   RACE 
   <chr>        <chr>       <chr>   <dbl> <chr> <chr>
 1 CDISCPILOT01 01-710-1083 Placebo    89 F     WHITE
 2 CDISCPILOT01 01-710-1368 Placebo    88 F     WHITE
 3 CDISCPILOT01 01-714-1035 Placebo    88 F     WHITE
 4 CDISCPILOT01 01-701-1387 Placebo    87 F     WHITE
 5 CDISCPILOT01 01-704-1233 Placebo    87 F     WHITE
 6 CDISCPILOT01 01-716-1024 Placebo    87 F     WHITE
 7 CDISCPILOT01 01-705-1349 Placebo    86 F     WHITE
 8 CDISCPILOT01 01-710-1271 Placebo    86 F     WHITE
 9 CDISCPILOT01 01-716-1108 Placebo    86 F     WHITE
10 CDISCPILOT01 01-701-1047 Placebo    85 F     WHITE
# … with 131 more rows
