exercises
…
EOSSTT

AGE

AGEU

AGEGR1

Show solution

adsl %>% 
  select(USUBJID, SEX, ARM, EOSSTT, starts_with("AGE"))

# A tibble: 306 × 7
   USUBJID     SEX   ARM                  EOSSTT         AGE AGEU  AGEGR1
   <chr>       <chr> <chr>                <chr>        <dbl> <chr>  <dbl>
 1 01-701-1015 F     Placebo              COMPLETED       63 YEARS      2
 2 01-701-1023 M     Placebo              DISCONTINUED    64 YEARS      2
 3 01-701-1028 M     Xanomeline High Dose COMPLETED       71 YEARS      3
 4 01-701-1033 M     Xanomeline Low Dose  DISCONTINUED    74 YEARS      3
 5 01-701-1034 F     Xanomeline High Dose COMPLETED       77 YEARS      3
 6 01-701-1047 F     Placebo              DISCONTINUED    85 YEARS      3
 7 01-701-1057 F     Screen Failure       <NA>            59 YEARS      2
 8 01-701-1097 M     Xanomeline Low Dose  COMPLETED       68 YEARS      3
 9 01-701-1111 F     Xanomeline Low Dose  DISCONTINUED    81 YEARS      3
10 01-701-1115 M     Xanomeline Low Dose  DISCONTINUED    84 YEARS      3
# … with 296 more rows
…
