tidyr
…
As we see here, in our SUPPDM domain, the data is currently in the “long” format. If we wanted to transform the dataset such that each of the unique values of QNAM was their own column, we are looking to transpose the data from “long” to “wide”. In this case, we use pivot_wider().

suppdm_wide <- suppdm %>% 
  pivot_wider(., 
              names_from = "QNAM", # assign column names based on QNAM
              values_from = "QVAL") # retrieve values from QVAL
suppdm_wide

# A tibble: 254 × 7
   USUBJID     COMPLT16 COMPLT24 COMPLT8 EFFICACY ITT   SAFETY
   <chr>       <chr>    <chr>    <chr>   <chr>    <chr> <chr> 
 1 01-701-1015 Y        Y        Y       Y        Y     Y     
 2 01-701-1023 <NA>     <NA>     <NA>    Y        Y     Y     
 3 01-701-1028 Y        Y        Y       Y        Y     Y     
 4 01-701-1033 <NA>     <NA>     <NA>    Y        Y     Y     
 5 01-701-1034 Y        Y        Y       Y        Y     Y     
 6 01-701-1047 <NA>     <NA>     <NA>    Y        Y     Y     
 7 01-701-1097 Y        Y        Y       Y        Y     Y     
 8 01-701-1111 <NA>     <NA>     <NA>    Y        Y     Y     
 9 01-701-1115 <NA>     <NA>     Y       Y        Y     Y     
10 01-701-1118 Y        Y        Y       Y        Y     Y     
# … with 244 more rows

Voila! This “wide” dataset may prove useful for joins (to be discussed later). But for now, let’s pretend that this “wide” format is how our original data came to us in. If we wanted to take these respective flagging columns and turn them into a “long” format, we use pivot_longer().

suppdm_long <- suppdm_wide %>% 
  pivot_longer(., 
               cols = c("COMPLT16", "COMPLT24", "COMPLT8", "EFFICACY", "ITT", "SAFETY"), 
               names_to = "QNAM",
               values_to = "QVAL")
suppdm_long

# A tibble: 1,524 × 3
   USUBJID     QNAM     QVAL 
   <chr>       <chr>    <chr>
 1 01-701-1015 COMPLT16 Y    
 2 01-701-1015 COMPLT24 Y    
 3 01-701-1015 COMPLT8  Y    
 4 01-701-1015 EFFICACY Y    
 5 01-701-1015 ITT      Y    
 6 01-701-1015 SAFETY   Y    
 7 01-701-1023 COMPLT16 <NA> 
 8 01-701-1023 COMPLT24 <NA> 
 9 01-701-1023 COMPLT8  <NA> 
10 01-701-1023 EFFICACY Y    
# … with 1,514 more rows

As you can see, as we pivoted back, we didn’t come up with an exact duplicate of our original suppdm dataframe. This is because the default of pivot_longer() is not to drop NA values, which can be modified with the values_drop_na function input, just one of the many powerful additional function inputs from both of these pivoting functions. pivot_wider() and pivot_longer() were designed to handle a variety of situations when transposing data in the most flexible of ways.

suppdm_long <- suppdm_wide %>% 
  pivot_longer(., 
               cols = c("COMPLT16", "COMPLT24", "COMPLT8", "EFFICACY", "ITT", "SAFETY"), 
               names_to = "flag",
               values_to = "flag_value",
               values_drop_na = TRUE)
suppdm_long

# A tibble: 1,197 × 3
   USUBJID     flag     flag_value
   <chr>       <chr>    <chr>     
 1 01-701-1015 COMPLT16 Y         
 2 01-701-1015 COMPLT24 Y         
 3 01-701-1015 COMPLT8  Y         
 4 01-701-1015 EFFICACY Y         
 5 01-701-1015 ITT      Y         
 6 01-701-1015 SAFETY   Y         
 7 01-701-1023 EFFICACY Y         
 8 01-701-1023 ITT      Y         
 9 01-701-1023 SAFETY   Y         
10 01-701-1028 COMPLT16 Y         
# … with 1,187 more rows
…
