Introduction to R for SAS programmers - 3 dplyr exercises
…
AGEU

AGEGR1

COUNTRY

EOSSTT

Show solution

adsl %>% 
  select(USUBJID, ARM, SEX, starts_with("AGE"), COUNTRY, EOSSTT)

# A tibble: 306 × 8
   USUBJID     ARM                  SEX     AGE AGEU  AGEGR1 COUNTRY EOSSTT     
   <chr>       <chr>                <chr> <dbl> <chr>  <dbl> <chr>   <chr>      
 1 01-701-1015 Placebo              F        63 YEARS      2 USA     COMPLETED  
 2 01-701-1023 Placebo              M        64 YEARS      2 USA     DISCONTINU…
 3 01-701-1028 Xanomeline High Dose M        71 YEARS      3 USA     COMPLETED  
 4 01-701-1033 Xanomeline Low Dose  M        74 YEARS      3 USA     DISCONTINU…
 5 01-701-1034 Xanomeline High Dose F        77 YEARS      3 USA     COMPLETED  
 6 01-701-1047 Placebo              F        85 YEARS      3 USA     DISCONTINU…
 7 01-701-1057 Screen Failure       F        59 YEARS      2 USA     <NA>       
 8 01-701-1097 Xanomeline Low Dose  M        68 YEARS      3 USA     COMPLETED  
 9 01-701-1111 Xanomeline Low Dose  F        81 YEARS      3 USA     DISCONTINU…
10 01-701-1115 Xanomeline Low Dose  M        84 YEARS      3 USA     DISCONTINU…
# … with 296 more rows
…
