Introduction to R for SAS programmers - 8 summarizing data exercises
…
8.2 Exercise 1

Count the number of overall adverse events per subject and sort the output such that the subject with the highest overall number of adverse events appears first.

Show solution

ae %>% 
  group_by(USUBJID) %>% 
  summarise(n_ae = n()) %>% 
  arrange(desc(n_ae))

# A tibble: 225 × 2
   USUBJID      n_ae
   <chr>       <int>
 1 01-701-1302    23
 2 01-717-1004    19
 3 01-704-1266    16
 4 01-709-1029    16
 5 01-718-1427    16
 6 01-701-1192    15
 7 01-701-1275    15
 8 01-709-1309    15
 9 01-713-1179    15
10 01-711-1143    14
# … with 215 more rows
…
